{
    "HltANNSvc/HltANNSvc": {
        "AuditFinalize": false,
        "AuditInitialize": false,
        "AuditReinitialize": false,
        "AuditRestart": false,
        "AuditServices": false,
        "AuditStart": false,
        "AuditStop": false,
        "AutoRetrieveTools": true,
        "CheckToolDeps": true,
        "Hlt1SelectionID": {},
        "Hlt2SelectionID": {
            "Hlt2Ks0ToPiPiLLMonitoringLineDecision": 101,
            "Hlt2L0ToPPiLLMonitoringLineDecision": 100
        },
        "InfoID": {},
        "OutputLevel": 0,
        "PackedObjectLocations": {
            "/Event/BremChi22IDFuture/Output": 1,
            "/Event/BremMatchAlgFuture/Output": 2,
            "/Event/BremPIDeAlgFuture/Output": 3,
            "/Event/CaloFutureClusterCovarianceAlg/OutputData": 4,
            "/Event/CaloFutureShowerOverlap/OutputData": 5,
            "/Event/ClassifyPhotonElectronAlg/OutputElectrons": 6,
            "/Event/ClassifyPhotonElectronAlg/OutputPhotons": 7,
            "/Event/DAQ/RawEvent": 8,
            "/Event/FTRawBankDecoder/OutputLocation": 9,
            "/Event/FunctionalChargedProtoParticleMaker/Output": 10,
            "/Event/FunctionalParticleMaker#1/Particle2VertexRelations": 11,
            "/Event/FunctionalParticleMaker#1/Particles": 12,
            "/Event/FunctionalParticleMaker#1/_RefitPVs": 13,
            "/Event/FunctionalParticleMaker#1/decayVertices": 14,
            "/Event/FunctionalParticleMaker/Particle2VertexRelations": 15,
            "/Event/FunctionalParticleMaker/Particles": 16,
            "/Event/FunctionalParticleMaker/_RefitPVs": 17,
            "/Event/FunctionalParticleMaker/decayVertices": 18,
            "/Event/FutureCellularAutomatonAlg/OutputData": 19,
            "/Event/FutureClusChi22ID/Output": 20,
            "/Event/FutureEcalChi22ID/Output": 21,
            "/Event/FutureEcalPIDeAlg/Output": 22,
            "/Event/FutureEcalPIDmuAlg/Output": 23,
            "/Event/FutureEcalZSup/OutputDigitData": 24,
            "/Event/FutureElectronMatchAlg/Output": 25,
            "/Event/FutureHcalPIDeAlg/Output": 26,
            "/Event/FutureHcalPIDmuAlg/Output": 27,
            "/Event/FutureHcalZSup#1/OutputDigitData": 28,
            "/Event/FutureInBremFutureAcceptanceAlg/Output": 29,
            "/Event/FuturePhotonMatchAlg/Output": 30,
            "/Event/FutureTrack2EcalEAlg/Output": 31,
            "/Event/FutureTrack2HcalEAlg/Output": 32,
            "/Event/HLT2/BremChi22IDFuture/Output": 33,
            "/Event/HLT2/BremMatchAlgFuture/Output": 34,
            "/Event/HLT2/BremPIDeAlgFuture/Output": 35,
            "/Event/HLT2/CaloFutureClusterCovarianceAlg/OutputData": 36,
            "/Event/HLT2/CaloFutureShowerOverlap/OutputData": 37,
            "/Event/HLT2/ClassifyPhotonElectronAlg/OutputElectrons": 38,
            "/Event/HLT2/ClassifyPhotonElectronAlg/OutputPhotons": 39,
            "/Event/HLT2/DAQ/RawEvent": 40,
            "/Event/HLT2/FTRawBankDecoder/OutputLocation": 41,
            "/Event/HLT2/FunctionalChargedProtoParticleMaker/Output": 42,
            "/Event/HLT2/FunctionalParticleMaker#1/Particle2VertexRelations": 43,
            "/Event/HLT2/FunctionalParticleMaker#1/Particles": 44,
            "/Event/HLT2/FunctionalParticleMaker#1/_RefitPVs": 45,
            "/Event/HLT2/FunctionalParticleMaker#1/decayVertices": 46,
            "/Event/HLT2/FunctionalParticleMaker/Particle2VertexRelations": 47,
            "/Event/HLT2/FunctionalParticleMaker/Particles": 48,
            "/Event/HLT2/FunctionalParticleMaker/_RefitPVs": 49,
            "/Event/HLT2/FunctionalParticleMaker/decayVertices": 50,
            "/Event/HLT2/FutureCellularAutomatonAlg/OutputData": 51,
            "/Event/HLT2/FutureClusChi22ID/Output": 52,
            "/Event/HLT2/FutureEcalChi22ID/Output": 53,
            "/Event/HLT2/FutureEcalPIDeAlg/Output": 54,
            "/Event/HLT2/FutureEcalPIDmuAlg/Output": 55,
            "/Event/HLT2/FutureEcalZSup/OutputDigitData": 56,
            "/Event/HLT2/FutureElectronMatchAlg/Output": 57,
            "/Event/HLT2/FutureHcalPIDeAlg/Output": 58,
            "/Event/HLT2/FutureHcalPIDmuAlg/Output": 59,
            "/Event/HLT2/FutureHcalZSup#1/OutputDigitData": 60,
            "/Event/HLT2/FutureInBremFutureAcceptanceAlg/Output": 61,
            "/Event/HLT2/FuturePhotonMatchAlg/Output": 62,
            "/Event/HLT2/FutureTrack2EcalEAlg/Output": 63,
            "/Event/HLT2/FutureTrack2HcalEAlg/Output": 64,
            "/Event/HLT2/Hlt2Ks0ToPiPiLLMonitoringLine/Particle2VertexRelations": 65,
            "/Event/HLT2/Hlt2Ks0ToPiPiLLMonitoringLine/Particles": 66,
            "/Event/HLT2/Hlt2Ks0ToPiPiLLMonitoringLine/decayVertices": 67,
            "/Event/HLT2/Hlt2L0ToPPiLLMonitoringLine/Particle2VertexRelations": 68,
            "/Event/HLT2/Hlt2L0ToPPiLLMonitoringLine/Particles": 69,
            "/Event/HLT2/Hlt2L0ToPPiLLMonitoringLine/decayVertices": 70,
            "/Event/HLT2/InEcalFutureAcceptanceAlg/Output": 71,
            "/Event/HLT2/InHcalFutureAcceptanceAlg/Output": 72,
            "/Event/HLT2/LHCb__Converters__Calo__Cluster__v1__fromV2/OutputClusters": 73,
            "/Event/HLT2/LHCb__Converters__Calo__Hypo2TrackTable__v1__fromV2#1/OutputTable": 74,
            "/Event/HLT2/LHCb__Converters__Calo__Hypo2TrackTable__v1__fromV2/OutputTable": 75,
            "/Event/HLT2/LHCb__Converters__Calo__Hypo__v1__fromV2#1/OutputHypos": 76,
            "/Event/HLT2/LHCb__Converters__Calo__Hypo__v1__fromV2/OutputHypos": 77,
            "/Event/HLT2/LHCb__Converters__RecVertex__v2__fromVectorLHCbRecVertices/OutputVerticesName": 78,
            "/Event/HLT2/LHCb__Converters__RecVertices__LHCbRecVerticesToVectorV2RecVertex/OutputVertices": 79,
            "/Event/HLT2/LHCb__Converters__Track__v2__fromV1TrackV2Track/OutputTracksName": 80,
            "/Event/HLT2/LHCb__UnpackRawEvent#1/Output": 81,
            "/Event/HLT2/LHCb__UnpackRawEvent/Output": 82,
            "/Event/HLT2/MC/Ecal/Hits": 83,
            "/Event/HLT2/MC/FT/Hits": 84,
            "/Event/HLT2/MC/Hcal/Hits": 85,
            "/Event/HLT2/MC/Muon/Hits": 86,
            "/Event/HLT2/MC/Particles": 87,
            "/Event/HLT2/MC/Rich/DigitSummaries": 88,
            "/Event/HLT2/MC/Rich/Hits": 89,
            "/Event/HLT2/MC/UT/Hits": 90,
            "/Event/HLT2/MC/VP/Hits": 91,
            "/Event/HLT2/MC/Vertices": 92,
            "/Event/HLT2/MuonIDAlgLite#1/MuonTrackLocation": 93,
            "/Event/HLT2/MuonIDAlgLite#2/MuonTrackLocation": 94,
            "/Event/HLT2/MuonIDAlgLite/MuonIDLocation": 95,
            "/Event/HLT2/MuonIDAlgLite/MuonTrackLocation": 96,
            "/Event/HLT2/MuonRawToHits/HitContainer": 97,
            "/Event/HLT2/Online__BanksToRawEventEcalPacked/RawEvent": 98,
            "/Event/HLT2/Online__BanksToRawEventFTCluster/RawEvent": 99,
            "/Event/HLT2/Online__BanksToRawEventHcalPacked/RawEvent": 100,
            "/Event/HLT2/Online__BanksToRawEventMuon/RawEvent": 101,
            "/Event/HLT2/Online__BanksToRawEventRich/RawEvent": 102,
            "/Event/HLT2/Online__BanksToRawEventUT/RawEvent": 103,
            "/Event/HLT2/Online__BanksToRawEventVP/RawEvent": 104,
            "/Event/HLT2/ParticleRangeFilter#1/Output": 105,
            "/Event/HLT2/ParticleRangeFilter/Output": 106,
            "/Event/HLT2/PrForwardTrackingVelo/OutputTracks": 107,
            "/Event/HLT2/PrHybridSeeding/OutputName": 108,
            "/Event/HLT2/PrLongLivedTracking/OutputLocation": 109,
            "/Event/HLT2/PrMatchNN/MatchOutput": 110,
            "/Event/HLT2/PrStorePrUTHits/UTHitsLocation": 111,
            "/Event/HLT2/PrStoreSciFiHits/Output": 112,
            "/Event/HLT2/PrStoreUTHit/UTHitsLocation": 113,
            "/Event/HLT2/PrVeloUT/OutputTracksName": 114,
            "/Event/HLT2/Rec/Calo/Electrons": 115,
            "/Event/HLT2/Rec/Calo/MergedPi0s": 116,
            "/Event/HLT2/Rec/Calo/Photons": 117,
            "/Event/HLT2/Rec/Calo/SplitPhotons": 118,
            "/Event/HLT2/Rec/Muon/MuonPID": 119,
            "/Event/HLT2/Rec/ProtoP/Charged": 120,
            "/Event/HLT2/Rec/ProtoP/Neutrals": 121,
            "/Event/HLT2/Rec/Rich/PIDs": 122,
            "/Event/HLT2/Rec/Track/Best": 123,
            "/Event/HLT2/Rec/Track/Muon": 124,
            "/Event/HLT2/Rec/Vertex/Primary": 125,
            "/Event/HLT2/Relations/ChargedPP2MCP": 126,
            "/Event/HLT2/Relations/NeutralPP2MCP": 127,
            "/Event/HLT2/RichCKResolutionsDownstream/CherenkovResolutionsLocation": 128,
            "/Event/HLT2/RichCKResolutionsLong/CherenkovResolutionsLocation": 129,
            "/Event/HLT2/RichCKResolutionsUpstream/CherenkovResolutionsLocation": 130,
            "/Event/HLT2/RichDetectableYieldsDownstream/DetectablePhotonSpectraLocation": 131,
            "/Event/HLT2/RichDetectableYieldsDownstream/DetectablePhotonYieldLocation": 132,
            "/Event/HLT2/RichDetectableYieldsLong/DetectablePhotonSpectraLocation": 133,
            "/Event/HLT2/RichDetectableYieldsLong/DetectablePhotonYieldLocation": 134,
            "/Event/HLT2/RichDetectableYieldsUpstream/DetectablePhotonSpectraLocation": 135,
            "/Event/HLT2/RichDetectableYieldsUpstream/DetectablePhotonYieldLocation": 136,
            "/Event/HLT2/RichEmittedCKAnglesDownstream/EmittedCherenkovAnglesLocation": 137,
            "/Event/HLT2/RichEmittedCKAnglesLong/EmittedCherenkovAnglesLocation": 138,
            "/Event/HLT2/RichEmittedCKAnglesUpstream/EmittedCherenkovAnglesLocation": 139,
            "/Event/HLT2/RichEmittedYieldsDownstream/EmittedPhotonSpectraLocation": 140,
            "/Event/HLT2/RichEmittedYieldsDownstream/EmittedPhotonYieldLocation": 141,
            "/Event/HLT2/RichEmittedYieldsLong/EmittedPhotonSpectraLocation": 142,
            "/Event/HLT2/RichEmittedYieldsLong/EmittedPhotonYieldLocation": 143,
            "/Event/HLT2/RichEmittedYieldsUpstream/EmittedPhotonSpectraLocation": 144,
            "/Event/HLT2/RichEmittedYieldsUpstream/EmittedPhotonYieldLocation": 145,
            "/Event/HLT2/RichGPIDInitDownstream/TrackDLLsLocation": 146,
            "/Event/HLT2/RichGPIDInitDownstream/TrackPIDHyposLocation": 147,
            "/Event/HLT2/RichGPIDInitLong/TrackDLLsLocation": 148,
            "/Event/HLT2/RichGPIDInitLong/TrackPIDHyposLocation": 149,
            "/Event/HLT2/RichGPIDInitUpstream/TrackDLLsLocation": 150,
            "/Event/HLT2/RichGPIDInitUpstream/TrackPIDHyposLocation": 151,
            "/Event/HLT2/RichGPIDLikelihoodIt0Downstream/TrackDLLsOutputLocation": 152,
            "/Event/HLT2/RichGPIDLikelihoodIt0Downstream/TrackPIDHyposOutputLocation": 153,
            "/Event/HLT2/RichGPIDLikelihoodIt0Long/TrackDLLsOutputLocation": 154,
            "/Event/HLT2/RichGPIDLikelihoodIt0Long/TrackPIDHyposOutputLocation": 155,
            "/Event/HLT2/RichGPIDLikelihoodIt0Upstream/TrackDLLsOutputLocation": 156,
            "/Event/HLT2/RichGPIDLikelihoodIt0Upstream/TrackPIDHyposOutputLocation": 157,
            "/Event/HLT2/RichGPIDLikelihoodIt1Downstream/TrackDLLsOutputLocation": 158,
            "/Event/HLT2/RichGPIDLikelihoodIt1Downstream/TrackPIDHyposOutputLocation": 159,
            "/Event/HLT2/RichGPIDLikelihoodIt1Long/TrackDLLsOutputLocation": 160,
            "/Event/HLT2/RichGPIDLikelihoodIt1Long/TrackPIDHyposOutputLocation": 161,
            "/Event/HLT2/RichGPIDLikelihoodIt1Upstream/TrackDLLsOutputLocation": 162,
            "/Event/HLT2/RichGPIDLikelihoodIt1Upstream/TrackPIDHyposOutputLocation": 163,
            "/Event/HLT2/RichGeomEffDownstream/GeomEffsLocation": 164,
            "/Event/HLT2/RichGeomEffDownstream/GeomEffsPerPDLocation": 165,
            "/Event/HLT2/RichGeomEffDownstream/SegmentPhotonFlagsLocation": 166,
            "/Event/HLT2/RichGeomEffLong/GeomEffsLocation": 167,
            "/Event/HLT2/RichGeomEffLong/GeomEffsPerPDLocation": 168,
            "/Event/HLT2/RichGeomEffLong/SegmentPhotonFlagsLocation": 169,
            "/Event/HLT2/RichGeomEffUpstream/GeomEffsLocation": 170,
            "/Event/HLT2/RichGeomEffUpstream/GeomEffsPerPDLocation": 171,
            "/Event/HLT2/RichGeomEffUpstream/SegmentPhotonFlagsLocation": 172,
            "/Event/HLT2/RichMassConesDownstream/MassHypothesisRingsLocation": 173,
            "/Event/HLT2/RichMassConesLong/MassHypothesisRingsLocation": 174,
            "/Event/HLT2/RichMassConesUpstream/MassHypothesisRingsLocation": 175,
            "/Event/HLT2/RichPIDsWriterDownstream/RichPIDsLocation": 176,
            "/Event/HLT2/RichPIDsWriterLong/RichPIDsLocation": 177,
            "/Event/HLT2/RichPIDsWriterUpstream/RichPIDsLocation": 178,
            "/Event/HLT2/RichPhotonRecoDownstream/CherenkovPhotonLocation": 179,
            "/Event/HLT2/RichPhotonRecoDownstream/PhotonToParentsLocation": 180,
            "/Event/HLT2/RichPhotonRecoLong/CherenkovPhotonLocation": 181,
            "/Event/HLT2/RichPhotonRecoLong/PhotonToParentsLocation": 182,
            "/Event/HLT2/RichPhotonRecoUpstream/CherenkovPhotonLocation": 183,
            "/Event/HLT2/RichPhotonRecoUpstream/PhotonToParentsLocation": 184,
            "/Event/HLT2/RichPixBackgroundsIt0Downstream/PixelBackgroundsLocation": 185,
            "/Event/HLT2/RichPixBackgroundsIt0Long/PixelBackgroundsLocation": 186,
            "/Event/HLT2/RichPixBackgroundsIt0Upstream/PixelBackgroundsLocation": 187,
            "/Event/HLT2/RichPixBackgroundsIt1Downstream/PixelBackgroundsLocation": 188,
            "/Event/HLT2/RichPixBackgroundsIt1Long/PixelBackgroundsLocation": 189,
            "/Event/HLT2/RichPixBackgroundsIt1Upstream/PixelBackgroundsLocation": 190,
            "/Event/HLT2/RichPixelClustering/RichPixelClustersLocation": 191,
            "/Event/HLT2/RichPredPixelSignalDownstream/PhotonSignalsLocation": 192,
            "/Event/HLT2/RichPredPixelSignalLong/PhotonSignalsLocation": 193,
            "/Event/HLT2/RichPredPixelSignalUpstream/PhotonSignalsLocation": 194,
            "/Event/HLT2/RichRawDecoder/DecodedDataLocation": 195,
            "/Event/HLT2/RichRecSummaryDownstream/SummaryPixelsLocation": 196,
            "/Event/HLT2/RichRecSummaryDownstream/SummaryTracksLocation": 197,
            "/Event/HLT2/RichRecSummaryLong/SummaryPixelsLocation": 198,
            "/Event/HLT2/RichRecSummaryLong/SummaryTracksLocation": 199,
            "/Event/HLT2/RichRecSummaryUpstream/SummaryPixelsLocation": 200,
            "/Event/HLT2/RichRecSummaryUpstream/SummaryTracksLocation": 201,
            "/Event/HLT2/RichSIMDPixels/RichSIMDPixelSummariesLocation": 202,
            "/Event/HLT2/RichSignalCKAnglesDownstream/SignalCherenkovAnglesLocation": 203,
            "/Event/HLT2/RichSignalCKAnglesLong/SignalCherenkovAnglesLocation": 204,
            "/Event/HLT2/RichSignalCKAnglesUpstream/SignalCherenkovAnglesLocation": 205,
            "/Event/HLT2/RichSignalYieldsDownstream/SignalPhotonSpectraLocation": 206,
            "/Event/HLT2/RichSignalYieldsDownstream/SignalPhotonYieldLocation": 207,
            "/Event/HLT2/RichSignalYieldsLong/SignalPhotonSpectraLocation": 208,
            "/Event/HLT2/RichSignalYieldsLong/SignalPhotonYieldLocation": 209,
            "/Event/HLT2/RichSignalYieldsUpstream/SignalPhotonSpectraLocation": 210,
            "/Event/HLT2/RichSignalYieldsUpstream/SignalPhotonYieldLocation": 211,
            "/Event/HLT2/RichTkSegmentSelDownstream/OutTrackToSegmentsLocation": 212,
            "/Event/HLT2/RichTkSegmentSelLong/OutTrackToSegmentsLocation": 213,
            "/Event/HLT2/RichTkSegmentSelUpstream/OutTrackToSegmentsLocation": 214,
            "/Event/HLT2/RichTrackGloPointsDownstream/TrackGlobalPointsLocation": 215,
            "/Event/HLT2/RichTrackGloPointsLong/TrackGlobalPointsLocation": 216,
            "/Event/HLT2/RichTrackGloPointsUpstream/TrackGlobalPointsLocation": 217,
            "/Event/HLT2/RichTrackLocPointsDownstream/TrackLocalPointsLocation": 218,
            "/Event/HLT2/RichTrackLocPointsLong/TrackLocalPointsLocation": 219,
            "/Event/HLT2/RichTrackLocPointsUpstream/TrackLocalPointsLocation": 220,
            "/Event/HLT2/RichTrackSegmentsDownstream/TrackSegmentsLocation": 221,
            "/Event/HLT2/RichTrackSegmentsDownstream/TrackToSegmentsLocation": 222,
            "/Event/HLT2/RichTrackSegmentsLong/TrackSegmentsLocation": 223,
            "/Event/HLT2/RichTrackSegmentsLong/TrackToSegmentsLocation": 224,
            "/Event/HLT2/RichTrackSegmentsUpstream/TrackSegmentsLocation": 225,
            "/Event/HLT2/RichTrackSegmentsUpstream/TrackToSegmentsLocation": 226,
            "/Event/HLT2/Rich__Future__Rec__MergeRichPIDs/OutputRichPIDLocation": 227,
            "/Event/HLT2/Rich__Future__Rec__TrackFilter/OutDownTracksLocation": 228,
            "/Event/HLT2/Rich__Future__Rec__TrackFilter/OutLongTracksLocation": 229,
            "/Event/HLT2/Rich__Future__Rec__TrackFilter/OutUpTracksLocation": 230,
            "/Event/HLT2/SciFiTrackForwarding/Output": 231,
            "/Event/HLT2/SciFiTrackForwardingStoreHit/Output": 232,
            "/Event/HLT2/TrackBeamLineVertexFinderSoA/OutputVertices": 233,
            "/Event/HLT2/TrackBestTrackCreator/TracksOutContainer": 234,
            "/Event/HLT2/TwoBodyCombiner#1/OutputParticles": 235,
            "/Event/HLT2/TwoBodyCombiner#1/OutputVertices": 236,
            "/Event/HLT2/TwoBodyCombiner/OutputParticles": 237,
            "/Event/HLT2/TwoBodyCombiner/OutputVertices": 238,
            "/Event/HLT2/UniqueIDGeneratorAlg/Output": 239,
            "/Event/HLT2/VPClus/ClusterLocation": 240,
            "/Event/HLT2/VeloClusterTrackingSIMD/HitsLocation": 241,
            "/Event/HLT2/VeloClusterTrackingSIMD/TracksBackwardLocation": 242,
            "/Event/HLT2/VeloClusterTrackingSIMD/TracksLocation": 243,
            "/Event/HLT2/VeloKalman/OutputTracksLocation": 244,
            "/Event/HLT2/fromPrDownstreamTracksV1Tracks/OutputTracksLocation": 245,
            "/Event/HLT2/fromPrFittedForwardTracksV1Tracks/OutputTracksLocation": 246,
            "/Event/HLT2/fromPrForwardTracksFromVeloUTV1Tracks/OutputTracksLocation": 247,
            "/Event/HLT2/fromPrForwardTracksV1Tracks/OutputTracksLocation": 248,
            "/Event/HLT2/fromPrMatchTracksV1Tracks/OutputTracksLocation": 249,
            "/Event/HLT2/fromPrSeedingTracksV1Tracks/OutputTracksLocation": 250,
            "/Event/HLT2/fromPrUpstreamTracksV1Tracks/OutputTracksLocation": 251,
            "/Event/HLT2/fromPrVeloTracksV1TracksMerger/OutputTracksLocation": 252,
            "/Event/HLT2/pPhys/FlavourTags": 253,
            "/Event/HLT2/pPhys/P2IntRelations": 254,
            "/Event/HLT2/pPhys/PP2MCPRelations": 255,
            "/Event/HLT2/pPhys/PartToRelatedInfoRelations": 256,
            "/Event/HLT2/pPhys/Particles": 257,
            "/Event/HLT2/pPhys/RecVertices": 258,
            "/Event/HLT2/pPhys/Relations": 259,
            "/Event/HLT2/pPhys/Vertices": 260,
            "/Event/HLT2/pRec/Calo/Electrons": 261,
            "/Event/HLT2/pRec/Calo/MergedPi0s": 262,
            "/Event/HLT2/pRec/Calo/Photons": 263,
            "/Event/HLT2/pRec/Calo/SplitPhotons": 264,
            "/Event/HLT2/pRec/Muon/CustomPIDs": 265,
            "/Event/HLT2/pRec/Muon/MuonPID": 266,
            "/Event/HLT2/pRec/ProtoP/Charged": 267,
            "/Event/HLT2/pRec/ProtoP/Custom": 268,
            "/Event/HLT2/pRec/ProtoP/Neutrals": 269,
            "/Event/HLT2/pRec/Rich/CustomPIDs": 270,
            "/Event/HLT2/pRec/Rich/PIDs": 271,
            "/Event/HLT2/pRec/Track/Best": 272,
            "/Event/HLT2/pRec/Track/Custom": 273,
            "/Event/HLT2/pRec/Vertex/Primary": 274,
            "/Event/Hlt2Ks0ToPiPiLLMonitoringLine/Particle2VertexRelations": 275,
            "/Event/Hlt2Ks0ToPiPiLLMonitoringLine/Particles": 276,
            "/Event/Hlt2Ks0ToPiPiLLMonitoringLine/decayVertices": 277,
            "/Event/Hlt2L0ToPPiLLMonitoringLine/Particle2VertexRelations": 278,
            "/Event/Hlt2L0ToPPiLLMonitoringLine/Particles": 279,
            "/Event/Hlt2L0ToPPiLLMonitoringLine/decayVertices": 280,
            "/Event/InEcalFutureAcceptanceAlg/Output": 281,
            "/Event/InHcalFutureAcceptanceAlg/Output": 282,
            "/Event/LHCb__Converters__Calo__Cluster__v1__fromV2/OutputClusters": 283,
            "/Event/LHCb__Converters__Calo__Hypo2TrackTable__v1__fromV2#1/OutputTable": 284,
            "/Event/LHCb__Converters__Calo__Hypo2TrackTable__v1__fromV2/OutputTable": 285,
            "/Event/LHCb__Converters__Calo__Hypo__v1__fromV2#1/OutputHypos": 286,
            "/Event/LHCb__Converters__Calo__Hypo__v1__fromV2/OutputHypos": 287,
            "/Event/LHCb__Converters__RecVertex__v2__fromVectorLHCbRecVertices/OutputVerticesName": 288,
            "/Event/LHCb__Converters__RecVertices__LHCbRecVerticesToVectorV2RecVertex/OutputVertices": 289,
            "/Event/LHCb__Converters__Track__v2__fromV1TrackV2Track/OutputTracksName": 290,
            "/Event/LHCb__UnpackRawEvent#1/Output": 291,
            "/Event/LHCb__UnpackRawEvent/Output": 292,
            "/Event/MC/Ecal/Hits": 293,
            "/Event/MC/FT/Hits": 294,
            "/Event/MC/Hcal/Hits": 295,
            "/Event/MC/Muon/Hits": 296,
            "/Event/MC/Particles": 297,
            "/Event/MC/Rich/DigitSummaries": 298,
            "/Event/MC/Rich/Hits": 299,
            "/Event/MC/UT/Hits": 300,
            "/Event/MC/VP/Hits": 301,
            "/Event/MC/Vertices": 302,
            "/Event/MuonIDAlgLite/MuonIDLocation": 303,
            "/Event/MuonRawToHits/HitContainer": 304,
            "/Event/Online__BanksToRawEventEcalPacked/RawEvent": 305,
            "/Event/Online__BanksToRawEventFTCluster/RawEvent": 306,
            "/Event/Online__BanksToRawEventHcalPacked/RawEvent": 307,
            "/Event/Online__BanksToRawEventMuon/RawEvent": 308,
            "/Event/Online__BanksToRawEventRich/RawEvent": 309,
            "/Event/Online__BanksToRawEventUT/RawEvent": 310,
            "/Event/Online__BanksToRawEventVP/RawEvent": 311,
            "/Event/ParticleRangeFilter#1/Output": 312,
            "/Event/ParticleRangeFilter/Output": 313,
            "/Event/PrForwardTrackingVelo/OutputTracks": 314,
            "/Event/PrHybridSeeding/OutputName": 315,
            "/Event/PrLongLivedTracking/OutputLocation": 316,
            "/Event/PrMatchNN/MatchOutput": 317,
            "/Event/PrStorePrUTHits/UTHitsLocation": 318,
            "/Event/PrStoreSciFiHits/Output": 319,
            "/Event/PrStoreUTHit/UTHitsLocation": 320,
            "/Event/PrVeloUT/OutputTracksName": 321,
            "/Event/Rec/Calo/Electrons": 322,
            "/Event/Rec/Calo/MergedPi0s": 323,
            "/Event/Rec/Calo/Photons": 324,
            "/Event/Rec/Calo/SplitPhotons": 325,
            "/Event/Rec/Muon/MuonPID": 326,
            "/Event/Rec/ProtoP/Charged": 327,
            "/Event/Rec/ProtoP/Neutrals": 328,
            "/Event/Rec/Rich/PIDs": 329,
            "/Event/Rec/Track/Best": 330,
            "/Event/Rec/Track/Muon": 331,
            "/Event/Rec/Vertex/Primary": 332,
            "/Event/RichCKResolutionsDownstream/CherenkovResolutionsLocation": 333,
            "/Event/RichCKResolutionsLong/CherenkovResolutionsLocation": 334,
            "/Event/RichCKResolutionsUpstream/CherenkovResolutionsLocation": 335,
            "/Event/RichDetectableYieldsDownstream/DetectablePhotonSpectraLocation": 336,
            "/Event/RichDetectableYieldsDownstream/DetectablePhotonYieldLocation": 337,
            "/Event/RichDetectableYieldsLong/DetectablePhotonSpectraLocation": 338,
            "/Event/RichDetectableYieldsLong/DetectablePhotonYieldLocation": 339,
            "/Event/RichDetectableYieldsUpstream/DetectablePhotonSpectraLocation": 340,
            "/Event/RichDetectableYieldsUpstream/DetectablePhotonYieldLocation": 341,
            "/Event/RichEmittedCKAnglesDownstream/EmittedCherenkovAnglesLocation": 342,
            "/Event/RichEmittedCKAnglesLong/EmittedCherenkovAnglesLocation": 343,
            "/Event/RichEmittedCKAnglesUpstream/EmittedCherenkovAnglesLocation": 344,
            "/Event/RichEmittedYieldsDownstream/EmittedPhotonSpectraLocation": 345,
            "/Event/RichEmittedYieldsDownstream/EmittedPhotonYieldLocation": 346,
            "/Event/RichEmittedYieldsLong/EmittedPhotonSpectraLocation": 347,
            "/Event/RichEmittedYieldsLong/EmittedPhotonYieldLocation": 348,
            "/Event/RichEmittedYieldsUpstream/EmittedPhotonSpectraLocation": 349,
            "/Event/RichEmittedYieldsUpstream/EmittedPhotonYieldLocation": 350,
            "/Event/RichGPIDInitDownstream/TrackDLLsLocation": 351,
            "/Event/RichGPIDInitDownstream/TrackPIDHyposLocation": 352,
            "/Event/RichGPIDInitLong/TrackDLLsLocation": 353,
            "/Event/RichGPIDInitLong/TrackPIDHyposLocation": 354,
            "/Event/RichGPIDInitUpstream/TrackDLLsLocation": 355,
            "/Event/RichGPIDInitUpstream/TrackPIDHyposLocation": 356,
            "/Event/RichGPIDLikelihoodIt0Downstream/TrackDLLsOutputLocation": 357,
            "/Event/RichGPIDLikelihoodIt0Downstream/TrackPIDHyposOutputLocation": 358,
            "/Event/RichGPIDLikelihoodIt0Long/TrackDLLsOutputLocation": 359,
            "/Event/RichGPIDLikelihoodIt0Long/TrackPIDHyposOutputLocation": 360,
            "/Event/RichGPIDLikelihoodIt0Upstream/TrackDLLsOutputLocation": 361,
            "/Event/RichGPIDLikelihoodIt0Upstream/TrackPIDHyposOutputLocation": 362,
            "/Event/RichGPIDLikelihoodIt1Downstream/TrackDLLsOutputLocation": 363,
            "/Event/RichGPIDLikelihoodIt1Downstream/TrackPIDHyposOutputLocation": 364,
            "/Event/RichGPIDLikelihoodIt1Long/TrackDLLsOutputLocation": 365,
            "/Event/RichGPIDLikelihoodIt1Long/TrackPIDHyposOutputLocation": 366,
            "/Event/RichGPIDLikelihoodIt1Upstream/TrackDLLsOutputLocation": 367,
            "/Event/RichGPIDLikelihoodIt1Upstream/TrackPIDHyposOutputLocation": 368,
            "/Event/RichGeomEffDownstream/GeomEffsLocation": 369,
            "/Event/RichGeomEffDownstream/GeomEffsPerPDLocation": 370,
            "/Event/RichGeomEffDownstream/SegmentPhotonFlagsLocation": 371,
            "/Event/RichGeomEffLong/GeomEffsLocation": 372,
            "/Event/RichGeomEffLong/GeomEffsPerPDLocation": 373,
            "/Event/RichGeomEffLong/SegmentPhotonFlagsLocation": 374,
            "/Event/RichGeomEffUpstream/GeomEffsLocation": 375,
            "/Event/RichGeomEffUpstream/GeomEffsPerPDLocation": 376,
            "/Event/RichGeomEffUpstream/SegmentPhotonFlagsLocation": 377,
            "/Event/RichMassConesDownstream/MassHypothesisRingsLocation": 378,
            "/Event/RichMassConesLong/MassHypothesisRingsLocation": 379,
            "/Event/RichMassConesUpstream/MassHypothesisRingsLocation": 380,
            "/Event/RichPIDsWriterDownstream/RichPIDsLocation": 381,
            "/Event/RichPIDsWriterLong/RichPIDsLocation": 382,
            "/Event/RichPIDsWriterUpstream/RichPIDsLocation": 383,
            "/Event/RichPhotonRecoDownstream/CherenkovPhotonLocation": 384,
            "/Event/RichPhotonRecoDownstream/PhotonToParentsLocation": 385,
            "/Event/RichPhotonRecoLong/CherenkovPhotonLocation": 386,
            "/Event/RichPhotonRecoLong/PhotonToParentsLocation": 387,
            "/Event/RichPhotonRecoUpstream/CherenkovPhotonLocation": 388,
            "/Event/RichPhotonRecoUpstream/PhotonToParentsLocation": 389,
            "/Event/RichPixBackgroundsIt0Downstream/PixelBackgroundsLocation": 390,
            "/Event/RichPixBackgroundsIt0Long/PixelBackgroundsLocation": 391,
            "/Event/RichPixBackgroundsIt0Upstream/PixelBackgroundsLocation": 392,
            "/Event/RichPixBackgroundsIt1Downstream/PixelBackgroundsLocation": 393,
            "/Event/RichPixBackgroundsIt1Long/PixelBackgroundsLocation": 394,
            "/Event/RichPixBackgroundsIt1Upstream/PixelBackgroundsLocation": 395,
            "/Event/RichPixelClustering/RichPixelClustersLocation": 396,
            "/Event/RichPredPixelSignalDownstream/PhotonSignalsLocation": 397,
            "/Event/RichPredPixelSignalLong/PhotonSignalsLocation": 398,
            "/Event/RichPredPixelSignalUpstream/PhotonSignalsLocation": 399,
            "/Event/RichRawDecoder/DecodedDataLocation": 400,
            "/Event/RichRecSummaryDownstream/SummaryPixelsLocation": 401,
            "/Event/RichRecSummaryDownstream/SummaryTracksLocation": 402,
            "/Event/RichRecSummaryLong/SummaryPixelsLocation": 403,
            "/Event/RichRecSummaryLong/SummaryTracksLocation": 404,
            "/Event/RichRecSummaryUpstream/SummaryPixelsLocation": 405,
            "/Event/RichRecSummaryUpstream/SummaryTracksLocation": 406,
            "/Event/RichSIMDPixels/RichSIMDPixelSummariesLocation": 407,
            "/Event/RichSignalCKAnglesDownstream/SignalCherenkovAnglesLocation": 408,
            "/Event/RichSignalCKAnglesLong/SignalCherenkovAnglesLocation": 409,
            "/Event/RichSignalCKAnglesUpstream/SignalCherenkovAnglesLocation": 410,
            "/Event/RichSignalYieldsDownstream/SignalPhotonSpectraLocation": 411,
            "/Event/RichSignalYieldsDownstream/SignalPhotonYieldLocation": 412,
            "/Event/RichSignalYieldsLong/SignalPhotonSpectraLocation": 413,
            "/Event/RichSignalYieldsLong/SignalPhotonYieldLocation": 414,
            "/Event/RichSignalYieldsUpstream/SignalPhotonSpectraLocation": 415,
            "/Event/RichSignalYieldsUpstream/SignalPhotonYieldLocation": 416,
            "/Event/RichTkSegmentSelDownstream/OutTrackToSegmentsLocation": 417,
            "/Event/RichTkSegmentSelLong/OutTrackToSegmentsLocation": 418,
            "/Event/RichTkSegmentSelUpstream/OutTrackToSegmentsLocation": 419,
            "/Event/RichTrackGloPointsDownstream/TrackGlobalPointsLocation": 420,
            "/Event/RichTrackGloPointsLong/TrackGlobalPointsLocation": 421,
            "/Event/RichTrackGloPointsUpstream/TrackGlobalPointsLocation": 422,
            "/Event/RichTrackLocPointsDownstream/TrackLocalPointsLocation": 423,
            "/Event/RichTrackLocPointsLong/TrackLocalPointsLocation": 424,
            "/Event/RichTrackLocPointsUpstream/TrackLocalPointsLocation": 425,
            "/Event/RichTrackSegmentsDownstream/TrackSegmentsLocation": 426,
            "/Event/RichTrackSegmentsDownstream/TrackToSegmentsLocation": 427,
            "/Event/RichTrackSegmentsLong/TrackSegmentsLocation": 428,
            "/Event/RichTrackSegmentsLong/TrackToSegmentsLocation": 429,
            "/Event/RichTrackSegmentsUpstream/TrackSegmentsLocation": 430,
            "/Event/RichTrackSegmentsUpstream/TrackToSegmentsLocation": 431,
            "/Event/Rich__Future__Rec__MergeRichPIDs/OutputRichPIDLocation": 432,
            "/Event/Rich__Future__Rec__TrackFilter/OutDownTracksLocation": 433,
            "/Event/Rich__Future__Rec__TrackFilter/OutLongTracksLocation": 434,
            "/Event/Rich__Future__Rec__TrackFilter/OutUpTracksLocation": 435,
            "/Event/SciFiTrackForwarding/Output": 436,
            "/Event/SciFiTrackForwardingStoreHit/Output": 437,
            "/Event/TrackBeamLineVertexFinderSoA/OutputVertices": 438,
            "/Event/TrackBestTrackCreator/TracksOutContainer": 439,
            "/Event/TwoBodyCombiner#1/OutputParticles": 440,
            "/Event/TwoBodyCombiner#1/OutputVertices": 441,
            "/Event/TwoBodyCombiner/OutputParticles": 442,
            "/Event/TwoBodyCombiner/OutputVertices": 443,
            "/Event/UniqueIDGeneratorAlg/Output": 444,
            "/Event/VPClus/ClusterLocation": 445,
            "/Event/VeloClusterTrackingSIMD/HitsLocation": 446,
            "/Event/VeloClusterTrackingSIMD/TracksBackwardLocation": 447,
            "/Event/VeloClusterTrackingSIMD/TracksLocation": 448,
            "/Event/VeloKalman/OutputTracksLocation": 449,
            "/Event/fromPrDownstreamTracksV1Tracks/OutputTracksLocation": 450,
            "/Event/fromPrFittedForwardTracksV1Tracks/OutputTracksLocation": 451,
            "/Event/fromPrForwardTracksFromVeloUTV1Tracks/OutputTracksLocation": 452,
            "/Event/fromPrForwardTracksV1Tracks/OutputTracksLocation": 453,
            "/Event/fromPrMatchTracksV1Tracks/OutputTracksLocation": 454,
            "/Event/fromPrSeedingTracksV1Tracks/OutputTracksLocation": 455,
            "/Event/fromPrUpstreamTracksV1Tracks/OutputTracksLocation": 456,
            "/Event/fromPrVeloTracksV1TracksMerger/OutputTracksLocation": 457,
            "MuonIDAlgLite#1/MuonTrackLocation": 458,
            "MuonIDAlgLite#2/MuonTrackLocation": 459,
            "MuonIDAlgLite/MuonTrackLocation": 460,
            "Relations/ChargedPP2MCP": 461,
            "Relations/NeutralPP2MCP": 462
        },
        "RelInfoLocations": {},
        "RoutingBits": {},
        "SpruceSelectionID": {
            "PassThroughLineDecision": 5000
        },
        "allowUndefined": true
    }
}